…
Look at the hourly averages

``` r
print(hourly_avg)
```

    ## # A tibble: 24 × 4
    ##     hour avg_steps avg_calories avg_total_intensity
    ##    <int>     <dbl>        <dbl>               <dbl>
    ##  1     0     44.4          72.4               2.41 
    ##  2     1     20.5          69.6               1.32 
    ##  3     2     10.6          68.1               0.760
    ##  4     3      7.31         67.6               0.547
    ##  5     4      9.76         67.8               0.578
    ##  6     5     26.1          78.0               3.84 
    ##  7     6    120.           80.8               5.54 
    ##  8     7    267.           90.6               9.61 
    ##  9     8    366.           98.0              12.7  
    ## 10     9    430.          106.               15.2  
    ## # ℹ 14 more rows
…
